%YAML 1.1
%TAG !u! tag:unity3d.com,2011:
--- !u!29 &1
OcclusionCullingSettings:
  m_ObjectHideFlags: 0
  serializedVersion: 2
  m_OcclusionBakeSettings:
    smallestOccluder: 5
    smallestHole: 0.25
    backfaceThreshold: 100
  m_SceneGUID: 00000000000000000000000000000000
  m_OcclusionCullingData: {fileID: 0}
--- !u!104 &2
RenderSettings:
  m_ObjectHideFlags: 0
  serializedVersion: 8
  m_Fog: 0
  m_FogColor: {r: 0.5, g: 0.5, b: 0.5, a: 1}
  m_FogMode: 3
  m_FogDensity: 0.01
  m_LinearFogStart: 0
  m_LinearFogEnd: 300
  m_AmbientSkyColor: {r: 0.212, g: 0.227, b: 0.259, a: 1}
  m_AmbientEquatorColor: {r: 0.114, g: 0.125, b: 0.133, a: 1}
  m_AmbientGroundColor: {r: 0.047, g: 0.043, b: 0.035, a: 1}
  m_AmbientIntensity: 1
  m_AmbientMode: 3
  m_SubtractiveShadowColor: {r: 0.42, g: 0.478, b: 0.627, a: 1}
  m_SkyboxMaterial: {fileID: 0}
  m_HaloStrength: 0.5
  m_FlareStrength: 1
  m_FlareFadeSpeed: 3
  m_HaloTexture: {fileID: 0}
  m_SpotCookie: {fileID: 10001, guid: 0000000000000000e000000000000000, type: 0}
  m_DefaultReflectionMode: 0
  m_DefaultReflectionResolution: 128
  m_ReflectionBounces: 1
  m_ReflectionIntensity: 1
  m_CustomReflection: {fileID: 0}
  m_Sun: {fileID: 0}
  m_IndirectSpecularColor: {r: 0, g: 0, b: 0, a: 1}
--- !u!157 &3
LightmapSettings:
  m_ObjectHideFlags: 0
  serializedVersion: 11
  m_GIWorkflowMode: 1
  m_GISettings:
    serializedVersion: 2
    m_BounceScale: 1
    m_IndirectOutputScale: 1
    m_AlbedoBoost: 1
    m_TemporalCoherenceThreshold: 1
    m_EnvironmentLightingMode: 0
    m_EnableBakedLightmaps: 0
    m_EnableRealtimeLightmaps: 0
  m_LightmapEditorSettings:
    serializedVersion: 9
    m_Resolution: 2
    m_BakeResolution: 40
    m_TextureWidth: 1024
    m_TextureHeight: 1024
    m_AO: 0
    m_AOMaxDistance: 1
    m_CompAOExponent: 1
    m_CompAOExponentDirect: 0
    m_Padding: 2
    m_LightmapParameters: {fileID: 0}
    m_LightmapsBakeMode: 1
    m_TextureCompression: 1
    m_FinalGather: 0
    m_FinalGatherFiltering: 1
    m_FinalGatherRayCount: 256
    m_ReflectionCompression: 2
    m_MixedBakeMode: 2
    m_BakeBackend: 0
    m_PVRSampling: 1
    m_PVRDirectSampleCount: 32
    m_PVRSampleCount: 500
    m_PVRBounces: 2
    m_PVRFilterTypeDirect: 0
    m_PVRFilterTypeIndirect: 0
    m_PVRFilterTypeAO: 0
    m_PVRFilteringMode: 1
    m_PVRCulling: 1
    m_PVRFilteringGaussRadiusDirect: 1
    m_PVRFilteringGaussRadiusIndirect: 5
    m_PVRFilteringGaussRadiusAO: 2
    m_PVRFilteringAtrousPositionSigmaDirect: 0.5
    m_PVRFilteringAtrousPositionSigmaIndirect: 2
    m_PVRFilteringAtrousPositionSigmaAO: 1
  m_LightingDataAsset: {fileID: 0}
  m_UseShadowmask: 1
--- !u!196 &4
NavMeshSettings:
  serializedVersion: 2
  m_ObjectHideFlags: 0
  m_BuildSettings:
    serializedVersion: 2
    agentTypeID: 0
    agentRadius: 0.5
    agentHeight: 2
    agentSlope: 45
    agentClimb: 0.4
    ledgeDropHeight: 0
    maxJumpAcrossDistance: 0
    minRegionArea: 2
    manualCellSize: 0
    cellSize: 0.16666667
    manualTileSize: 0
    tileSize: 256
    accuratePlacement: 0
    debug:
      m_Flags: 0
  m_NavMeshData: {fileID: 0}
--- !u!1 &186235735
GameObject:
  m_ObjectHideFlags: 0
  m_PrefabParentObject: {fileID: 0}
  m_PrefabInternal: {fileID: 0}
  serializedVersion: 5
  m_Component:
  - component: {fileID: 186235739}
  - component: {fileID: 186235738}
  - component: {fileID: 186235737}
  - component: {fileID: 186235736}
  m_Layer: 0
  m_Name: Main Camera
  m_TagString: MainCamera
  m_Icon: {fileID: 0}
  m_NavMeshLayer: 0
  m_StaticEditorFlags: 0
  m_IsActive: 1
--- !u!81 &186235736
AudioListener:
  m_ObjectHideFlags: 0
  m_PrefabParentObject: {fileID: 0}
  m_PrefabInternal: {fileID: 0}
  m_GameObject: {fileID: 186235735}
  m_Enabled: 1
--- !u!124 &186235737
Behaviour:
  m_ObjectHideFlags: 0
  m_PrefabParentObject: {fileID: 0}
  m_PrefabInternal: {fileID: 0}
  m_GameObject: {fileID: 186235735}
  m_Enabled: 1
--- !u!20 &186235738
Camera:
  m_ObjectHideFlags: 0
  m_PrefabParentObject: {fileID: 0}
  m_PrefabInternal: {fileID: 0}
  m_GameObject: {fileID: 186235735}
  m_Enabled: 1
  serializedVersion: 2
  m_ClearFlags: 1
  m_BackGroundColor: {r: 0.19215687, g: 0.3019608, b: 0.4745098, a: 0}
  m_NormalizedViewPortRect:
    serializedVersion: 2
    x: 0
    y: 0
    width: 1
    height: 1
  near clip plane: 0.3
  far clip plane: 1000
  field of view: 60
  orthographic: 1
  orthographic size: 5
  m_Depth: -1
  m_CullingMask:
    serializedVersion: 2
    m_Bits: 4294967295
  m_RenderingPath: -1
  m_TargetTexture: {fileID: 0}
  m_TargetDisplay: 0
  m_TargetEye: 3
  m_HDR: 1
  m_AllowMSAA: 1
  m_ForceIntoRT: 0
  m_OcclusionCulling: 1
  m_StereoConvergence: 10
  m_StereoSeparation: 0.022
--- !u!4 &186235739
Transform:
  m_ObjectHideFlags: 0
  m_PrefabParentObject: {fileID: 0}
  m_PrefabInternal: {fileID: 0}
  m_GameObject: {fileID: 186235735}
  m_LocalRotation: {x: 0, y: 0, z: 0, w: 1}
  m_LocalPosition: {x: 0, y: 0, z: -10}
  m_LocalScale: {x: 1, y: 1, z: 1}
  m_Children: []
  m_Father: {fileID: 0}
  m_RootOrder: 0
  m_LocalEulerAnglesHint: {x: 0, y: 0, z: 0}
--- !u!1 &354453890
GameObject:
  m_ObjectHideFlags: 0
  m_PrefabParentObject: {fileID: 0}
  m_PrefabInternal: {fileID: 0}
  serializedVersion: 5
  m_Component:
  - component: {fileID: 354453891}
  - component: {fileID: 354453893}
  - component: {fileID: 354453892}
  m_Layer: 5
  m_Name: Restart
  m_TagString: Untagged
  m_Icon: {fileID: 0}
  m_NavMeshLayer: 0
  m_StaticEditorFlags: 0
  m_IsActive: 1
--- !u!224 &354453891
RectTransform:
  m_ObjectHideFlags: 0
  m_PrefabParentObject: {fileID: 0}
  m_PrefabInternal: {fileID: 0}
  m_GameObject: {fileID: 354453890}
  m_LocalRotation: {x: -0, y: -0, z: -0, w: 1}
  m_LocalPosition: {x: 446.13336, y: 231.01001, z: 0}
  m_LocalScale: {x: 1, y: 1, z: 1}
  m_Children: []
  m_Father: {fileID: 438325564}
  m_RootOrder: 1
  m_LocalEulerAnglesHint: {x: 0, y: 0, z: 0}
  m_AnchorMin: {x: 0.82571256, y: 0.93500006}
  m_AnchorMax: {x: 1, y: 1}
  m_AnchoredPosition: {x: 1.8999939, y: 1}
  m_SizeDelta: {x: -4.700012, y: -2}
  m_Pivot: {x: 0.5, y: 0.5}
--- !u!114 &354453892
MonoBehaviour:
  m_ObjectHideFlags: 0
  m_PrefabParentObject: {fileID: 0}
  m_PrefabInternal: {fileID: 0}
  m_GameObject: {fileID: 354453890}
  m_Enabled: 1
  m_EditorHideFlags: 0
  m_Script: {fileID: 708705254, guid: f70555f144d8491a825f0804e09c671c, type: 3}
  m_Name: 
  m_EditorClassIdentifier: 
  m_Material: {fileID: 0}
  m_Color: {r: 1, g: 1, b: 1, a: 1}
  m_RaycastTarget: 1
  m_OnCullStateChanged:
    m_PersistentCalls:
      m_Calls: []
    m_TypeName: UnityEngine.UI.MaskableGraphic+CullStateChangedEvent, UnityEngine.UI,
      Version=1.0.0.0, Culture=neutral, PublicKeyToken=null
  m_FontData:
    m_Font: {fileID: 10102, guid: 0000000000000000e000000000000000, type: 0}
    m_FontSize: 20
    m_FontStyle: 0
    m_BestFit: 0
    m_MinSize: 2
    m_MaxSize: 40
    m_Alignment: 4
    m_AlignByGeometry: 0
    m_RichText: 1
    m_HorizontalOverflow: 0
    m_VerticalOverflow: 0
    m_LineSpacing: 1
  m_Text: '[R]: Reiniciar'
--- !u!222 &354453893
CanvasRenderer:
  m_ObjectHideFlags: 0
  m_PrefabParentObject: {fileID: 0}
  m_PrefabInternal: {fileID: 0}
  m_GameObject: {fileID: 354453890}
--- !u!1 &438325560
GameObject:
  m_ObjectHideFlags: 0
  m_PrefabParentObject: {fileID: 0}
  m_PrefabInternal: {fileID: 0}
  serializedVersion: 5
  m_Component:
  - component: {fileID: 438325564}
  - component: {fileID: 438325563}
  - component: {fileID: 438325562}
  - component: {fileID: 438325561}
  m_Layer: 5
  m_Name: Canvas
  m_TagString: Untagged
  m_Icon: {fileID: 0}
  m_NavMeshLayer: 0
  m_StaticEditorFlags: 0
  m_IsActive: 1
--- !u!114 &438325561
MonoBehaviour:
  m_ObjectHideFlags: 0
  m_PrefabParentObject: {fileID: 0}
  m_PrefabInternal: {fileID: 0}
  m_GameObject: {fileID: 438325560}
  m_Enabled: 1
  m_EditorHideFlags: 0
  m_Script: {fileID: 1301386320, guid: f70555f144d8491a825f0804e09c671c, type: 3}
  m_Name: 
  m_EditorClassIdentifier: 
  m_IgnoreReversedGraphics: 1
  m_BlockingObjects: 0
  m_BlockingMask:
    serializedVersion: 2
    m_Bits: 4294967295
--- !u!114 &438325562
MonoBehaviour:
  m_ObjectHideFlags: 0
  m_PrefabParentObject: {fileID: 0}
  m_PrefabInternal: {fileID: 0}
  m_GameObject: {fileID: 438325560}
  m_Enabled: 1
  m_EditorHideFlags: 0
  m_Script: {fileID: 1980459831, guid: f70555f144d8491a825f0804e09c671c, type: 3}
  m_Name: 
  m_EditorClassIdentifier: 
  m_UiScaleMode: 0
  m_ReferencePixelsPerUnit: 100
  m_ScaleFactor: 1
  m_ReferenceResolution: {x: 800, y: 600}
  m_ScreenMatchMode: 0
  m_MatchWidthOrHeight: 0
  m_PhysicalUnit: 3
  m_FallbackScreenDPI: 96
  m_DefaultSpriteDPI: 96
  m_DynamicPixelsPerUnit: 1
--- !u!223 &438325563
Canvas:
  m_ObjectHideFlags: 0
  m_PrefabParentObject: {fileID: 0}
  m_PrefabInternal: {fileID: 0}
  m_GameObject: {fileID: 438325560}
  m_Enabled: 1
  serializedVersion: 3
  m_RenderMode: 0
  m_Camera: {fileID: 0}
  m_PlaneDistance: 100
  m_PixelPerfect: 0
  m_ReceivesEvents: 1
  m_OverrideSorting: 0
  m_OverridePixelPerfect: 0
  m_SortingBucketNormalizedSize: 0
  m_AdditionalShaderChannelsFlag: 0
  m_SortingLayerID: 0
  m_SortingOrder: 0
  m_TargetDisplay: 0
--- !u!224 &438325564
RectTransform:
  m_ObjectHideFlags: 0
  m_PrefabParentObject: {fileID: 0}
  m_PrefabInternal: {fileID: 0}
  m_GameObject: {fileID: 438325560}
  m_LocalRotation: {x: 0, y: 0, z: 0, w: 1}
  m_LocalPosition: {x: 538, y: 246, z: 0}
  m_LocalScale: {x: 1, y: 1, z: 1}
  m_Children:
  - {fileID: 1483081444}
  - {fileID: 354453891}
  m_Father: {fileID: 0}
  m_RootOrder: 5
  m_LocalEulerAnglesHint: {x: 0, y: 0, z: 0}
  m_AnchorMin: {x: 0.5, y: 0.5}
  m_AnchorMax: {x: 0.5, y: 0.5}
  m_AnchoredPosition: {x: 0, y: 0}
  m_SizeDelta: {x: 100, y: 100}
  m_Pivot: {x: 0.5, y: 0.5}
--- !u!1001 &573364374
Prefab:
  m_ObjectHideFlags: 0
  serializedVersion: 2
  m_Modification:
    m_TransformParent: {fileID: 0}
    m_Modifications:
    - target: {fileID: 114244622871792564, guid: 5826efbdf5b34c14a92c0eb25c2ca1d7,
        type: 2}
      propertyPath: levels.Array.size
      value: 10
      objectReference: {fileID: 0}
    - target: {fileID: 4013813444765974, guid: 5826efbdf5b34c14a92c0eb25c2ca1d7, type: 2}
      propertyPath: m_LocalPosition.x
      value: 0
      objectReference: {fileID: 0}
    - target: {fileID: 4013813444765974, guid: 5826efbdf5b34c14a92c0eb25c2ca1d7, type: 2}
      propertyPath: m_LocalPosition.y
      value: 0
      objectReference: {fileID: 0}
    - target: {fileID: 4013813444765974, guid: 5826efbdf5b34c14a92c0eb25c2ca1d7, type: 2}
      propertyPath: m_LocalPosition.z
      value: 0
      objectReference: {fileID: 0}
    - target: {fileID: 4013813444765974, guid: 5826efbdf5b34c14a92c0eb25c2ca1d7, type: 2}
      propertyPath: m_LocalRotation.x
      value: 0
      objectReference: {fileID: 0}
    - target: {fileID: 4013813444765974, guid: 5826efbdf5b34c14a92c0eb25c2ca1d7, type: 2}
      propertyPath: m_LocalRotation.y
      value: 0
      objectReference: {fileID: 0}
    - target: {fileID: 4013813444765974, guid: 5826efbdf5b34c14a92c0eb25c2ca1d7, type: 2}
      propertyPath: m_LocalRotation.z
      value: 0
      objectReference: {fileID: 0}
    - target: {fileID: 4013813444765974, guid: 5826efbdf5b34c14a92c0eb25c2ca1d7, type: 2}
      propertyPath: m_LocalRotation.w
      value: 1
      objectReference: {fileID: 0}
    - target: {fileID: 4013813444765974, guid: 5826efbdf5b34c14a92c0eb25c2ca1d7, type: 2}
      propertyPath: m_RootOrder
      value: 3
      objectReference: {fileID: 0}
    - target: {fileID: 114954440270970228, guid: 5826efbdf5b34c14a92c0eb25c2ca1d7,
        type: 2}
      propertyPath: boxParent
      value: 
      objectReference: {fileID: 701493171}
    - target: {fileID: 114954440270970228, guid: 5826efbdf5b34c14a92c0eb25c2ca1d7,
        type: 2}
      propertyPath: wallParent
      value: 
      objectReference: {fileID: 2079568295}
    - target: {fileID: 114954440270970228, guid: 5826efbdf5b34c14a92c0eb25c2ca1d7,
        type: 2}
      propertyPath: goalParent
      value: 
      objectReference: {fileID: 2050027156}
    - target: {fileID: 114954440270970228, guid: 5826efbdf5b34c14a92c0eb25c2ca1d7,
        type: 2}
      propertyPath: floorParent
      value: 
      objectReference: {fileID: 2143044829}
    - target: {fileID: 114954440270970228, guid: 5826efbdf5b34c14a92c0eb25c2ca1d7,
        type: 2}
      propertyPath: playerParent
      value: 
      objectReference: {fileID: 1571926323}
    - target: {fileID: 114954440270970228, guid: 5826efbdf5b34c14a92c0eb25c2ca1d7,
        type: 2}
      propertyPath: playerStartParent
      value: 
      objectReference: {fileID: 1717472606}
    - target: {fileID: 114954440270970228, guid: 5826efbdf5b34c14a92c0eb25c2ca1d7,
        type: 2}
      propertyPath: topPanel
      value: 
      objectReference: {fileID: 1483081444}
    - target: {fileID: 114244622871792564, guid: 5826efbdf5b34c14a92c0eb25c2ca1d7,
        type: 2}
      propertyPath: initialMode
      value: 3
      objectReference: {fileID: 0}
    - target: {fileID: 114244622871792564, guid: 5826efbdf5b34c14a92c0eb25c2ca1d7,
        type: 2}
      propertyPath: levels.Array.data[0]
      value: 
      objectReference: {fileID: 4900000, guid: 174daf802b31eef4295e73fdcef56630, type: 3}
    - target: {fileID: 114244622871792564, guid: 5826efbdf5b34c14a92c0eb25c2ca1d7,
        type: 2}
      propertyPath: levels.Array.data[1]
      value: 
      objectReference: {fileID: 4900000, guid: 1b604104bfc92cc428d00213e2b89157, type: 3}
    - target: {fileID: 114244622871792564, guid: 5826efbdf5b34c14a92c0eb25c2ca1d7,
        type: 2}
      propertyPath: levels.Array.data[2]
      value: 
      objectReference: {fileID: 4900000, guid: f1dfb00ff0cebbe4aa7a401ef97c07c5, type: 3}
    - target: {fileID: 114244622871792564, guid: 5826efbdf5b34c14a92c0eb25c2ca1d7,
        type: 2}
      propertyPath: levels.Array.data[3]
      value: 
      objectReference: {fileID: 4900000, guid: d6e1a335fed4a9d439763cbdf116b99c, type: 3}
    - target: {fileID: 114244622871792564, guid: 5826efbdf5b34c14a92c0eb25c2ca1d7,
        type: 2}
      propertyPath: levels.Array.data[4]
      value: 
      objectReference: {fileID: 4900000, guid: 9974c6ef0d6907544886e08ed7733d5f, type: 3}
    - target: {fileID: 114244622871792564, guid: 5826efbdf5b34c14a92c0eb25c2ca1d7,
        type: 2}
      propertyPath: levels.Array.data[5]
      value: 
      objectReference: {fileID: 4900000, guid: 3c044476b1d004c4e96ca21b6790fdc1, type: 3}
    - target: {fileID: 114244622871792564, guid: 5826efbdf5b34c14a92c0eb25c2ca1d7,
        type: 2}
      propertyPath: levels.Array.data[6]
      value: 
      objectReference: {fileID: 4900000, guid: 6b4f32ac2cfa1b54b9231af58baca349, type: 3}
    - target: {fileID: 114244622871792564, guid: 5826efbdf5b34c14a92c0eb25c2ca1d7,
        type: 2}
      propertyPath: levels.Array.data[7]
      value: 
      objectReference: {fileID: 4900000, guid: c8863c477e2025647b89de19da5403ad, type: 3}
    - target: {fileID: 114244622871792564, guid: 5826efbdf5b34c14a92c0eb25c2ca1d7,
        type: 2}
      propertyPath: levels.Array.data[8]
      value: 
      objectReference: {fileID: 4900000, guid: 86dec249a051f994096e7c5df469a0dc, type: 3}
    - target: {fileID: 114244622871792564, guid: 5826efbdf5b34c14a92c0eb25c2ca1d7,
        type: 2}
      propertyPath: levels.Array.data[9]
      value: 
      objectReference: {fileID: 4900000, guid: 0144a10ee7ea6de4981620ba5bf72af6, type: 3}
    - target: {fileID: 114244622871792564, guid: 5826efbdf5b34c14a92c0eb25c2ca1d7,
        type: 2}
      propertyPath: levels.Array.data[10]
      value: 
      objectReference: {fileID: 4900000, guid: f1dfb00ff0cebbe4aa7a401ef97c07c5, type: 3}
    - target: {fileID: 114244622871792564, guid: 5826efbdf5b34c14a92c0eb25c2ca1d7,
        type: 2}
      propertyPath: levels.Array.data[11]
      value: 
      objectReference: {fileID: 4900000, guid: d6e1a335fed4a9d439763cbdf116b99c, type: 3}
    - target: {fileID: 114244622871792564, guid: 5826efbdf5b34c14a92c0eb25c2ca1d7,
        type: 2}
      propertyPath: levels.Array.data[12]
      value: 
      objectReference: {fileID: 4900000, guid: 9974c6ef0d6907544886e08ed7733d5f, type: 3}
    - target: {fileID: 114244622871792564, guid: 5826efbdf5b34c14a92c0eb25c2ca1d7,
        type: 2}
      propertyPath: levels.Array.data[13]
      value: 
      objectReference: {fileID: 4900000, guid: 3c044476b1d004c4e96ca21b6790fdc1, type: 3}
    - target: {fileID: 114244622871792564, guid: 5826efbdf5b34c14a92c0eb25c2ca1d7,
        type: 2}
      propertyPath: levels.Array.data[14]
      value: 
      objectReference: {fileID: 4900000, guid: 6b4f32ac2cfa1b54b9231af58baca349, type: 3}
    - target: {fileID: 114244622871792564, guid: 5826efbdf5b34c14a92c0eb25c2ca1d7,
        type: 2}
      propertyPath: levels.Array.data[15]
      value: 
      objectReference: {fileID: 4900000, guid: c8863c477e2025647b89de19da5403ad, type: 3}
    - target: {fileID: 114244622871792564, guid: 5826efbdf5b34c14a92c0eb25c2ca1d7,
        type: 2}
      propertyPath: levels.Array.data[16]
      value: 
      objectReference: {fileID: 4900000, guid: 86dec249a051f994096e7c5df469a0dc, type: 3}
    m_RemovedComponents: []
  m_ParentPrefab: {fileID: 100100000, guid: 5826efbdf5b34c14a92c0eb25c2ca1d7, type: 2}
  m_IsPrefabParent: 0
--- !u!4 &701493171 stripped
Transform:
  m_PrefabParentObject: {fileID: 4051391687479336, guid: f42395eba2151d142adc8a8c693e7173,
    type: 2}
  m_PrefabInternal: {fileID: 1132721930}
--- !u!1001 &731593023
Prefab:
  m_ObjectHideFlags: 0
  serializedVersion: 2
  m_Modification:
    m_TransformParent: {fileID: 0}
    m_Modifications:
    - target: {fileID: 4999150806695204, guid: 6e8bdd5b72068c74eaf1ee12de155454, type: 2}
      propertyPath: m_LocalPosition.x
      value: 0
      objectReference: {fileID: 0}
    - target: {fileID: 4999150806695204, guid: 6e8bdd5b72068c74eaf1ee12de155454, type: 2}
      propertyPath: m_LocalPosition.y
      value: 0
      objectReference: {fileID: 0}
    - target: {fileID: 4999150806695204, guid: 6e8bdd5b72068c74eaf1ee12de155454, type: 2}
      propertyPath: m_LocalPosition.z
      value: 0
      objectReference: {fileID: 0}
    - target: {fileID: 4999150806695204, guid: 6e8bdd5b72068c74eaf1ee12de155454, type: 2}
      propertyPath: m_LocalRotation.x
      value: 0
      objectReference: {fileID: 0}
    - target: {fileID: 4999150806695204, guid: 6e8bdd5b72068c74eaf1ee12de155454, type: 2}
      propertyPath: m_LocalRotation.y
      value: 0
      objectReference: {fileID: 0}
    - target: {fileID: 4999150806695204, guid: 6e8bdd5b72068c74eaf1ee12de155454, type: 2}
      propertyPath: m_LocalRotation.z
      value: 0
      objectReference: {fileID: 0}
    - target: {fileID: 4999150806695204, guid: 6e8bdd5b72068c74eaf1ee12de155454, type: 2}
      propertyPath: m_LocalRotation.w
      value: 1
      objectReference: {fileID: 0}
    - target: {fileID: 4999150806695204, guid: 6e8bdd5b72068c74eaf1ee12de155454, type: 2}
      propertyPath: m_RootOrder
      value: 2
      objectReference: {fileID: 0}
    m_RemovedComponents: []
  m_ParentPrefab: {fileID: 100100000, guid: 6e8bdd5b72068c74eaf1ee12de155454, type: 2}
  m_IsPrefabParent: 0
--- !u!1 &733270392
GameObject:
  m_ObjectHideFlags: 0
  m_PrefabParentObject: {fileID: 0}
  m_PrefabInternal: {fileID: 0}
  serializedVersion: 5
  m_Component:
  - component: {fileID: 733270395}
  - component: {fileID: 733270394}
  - component: {fileID: 733270393}
  m_Layer: 0
  m_Name: EventSystem
  m_TagString: Untagged
  m_Icon: {fileID: 0}
  m_NavMeshLayer: 0
  m_StaticEditorFlags: 0
  m_IsActive: 1
--- !u!114 &733270393
MonoBehaviour:
  m_ObjectHideFlags: 0
  m_PrefabParentObject: {fileID: 0}
  m_PrefabInternal: {fileID: 0}
  m_GameObject: {fileID: 733270392}
  m_Enabled: 1
  m_EditorHideFlags: 0
  m_Script: {fileID: 1077351063, guid: f70555f144d8491a825f0804e09c671c, type: 3}
  m_Name: 
  m_EditorClassIdentifier: 
  m_HorizontalAxis: Horizontal
  m_VerticalAxis: Vertical
  m_SubmitButton: Submit
  m_CancelButton: Cancel
  m_InputActionsPerSecond: 10
  m_RepeatDelay: 0.5
  m_ForceModuleActive: 0
--- !u!114 &733270394
MonoBehaviour:
  m_ObjectHideFlags: 0
  m_PrefabParentObject: {fileID: 0}
  m_PrefabInternal: {fileID: 0}
  m_GameObject: {fileID: 733270392}
  m_Enabled: 1
  m_EditorHideFlags: 0
  m_Script: {fileID: -619905303, guid: f70555f144d8491a825f0804e09c671c, type: 3}
  m_Name: 
  m_EditorClassIdentifier: 
  m_FirstSelected: {fileID: 0}
  m_sendNavigationEvents: 1
  m_DragThreshold: 5
--- !u!4 &733270395
Transform:
  m_ObjectHideFlags: 0
  m_PrefabParentObject: {fileID: 0}
  m_PrefabInternal: {fileID: 0}
  m_GameObject: {fileID: 733270392}
  m_LocalRotation: {x: 0, y: 0, z: 0, w: 1}
  m_LocalPosition: {x: 0, y: 0, z: 0}
  m_LocalScale: {x: 1, y: 1, z: 1}
  m_Children: []
  m_Father: {fileID: 0}
  m_RootOrder: 6
  m_LocalEulerAnglesHint: {x: 0, y: 0, z: 0}
--- !u!1 &965027649 stripped
GameObject:
  m_PrefabParentObject: {fileID: 1380882637032150, guid: 5826efbdf5b34c14a92c0eb25c2ca1d7,
    type: 2}
  m_PrefabInternal: {fileID: 573364374}
--- !u!114 &965027650
MonoBehaviour:
  m_ObjectHideFlags: 0
  m_PrefabParentObject: {fileID: 0}
  m_PrefabInternal: {fileID: 0}
  m_GameObject: {fileID: 965027649}
  m_Enabled: 1
  m_EditorHideFlags: 0
  m_Script: {fileID: 11500000, guid: bedc6be97cb15e140b57ee3ba3867870, type: 3}
  m_Name: 
  m_EditorClassIdentifier: 
  levelNameGUI: {fileID: 1483081445}
  restartKeyCode: 114
--- !u!1001 &1132721930
Prefab:
  m_ObjectHideFlags: 0
  serializedVersion: 2
  m_Modification:
    m_TransformParent: {fileID: 0}
    m_Modifications:
    - target: {fileID: 4076429681986070, guid: f42395eba2151d142adc8a8c693e7173, type: 2}
      propertyPath: m_LocalPosition.x
      value: 0
      objectReference: {fileID: 0}
    - target: {fileID: 4076429681986070, guid: f42395eba2151d142adc8a8c693e7173, type: 2}
      propertyPath: m_LocalPosition.y
      value: 0
      objectReference: {fileID: 0}
    - target: {fileID: 4076429681986070, guid: f42395eba2151d142adc8a8c693e7173, type: 2}
      propertyPath: m_LocalPosition.z
      value: 0
      objectReference: {fileID: 0}
    - target: {fileID: 4076429681986070, guid: f42395eba2151d142adc8a8c693e7173, type: 2}
      propertyPath: m_LocalRotation.x
      value: 0
      objectReference: {fileID: 0}
    - target: {fileID: 4076429681986070, guid: f42395eba2151d142adc8a8c693e7173, type: 2}
      propertyPath: m_LocalRotation.y
      value: 0
      objectReference: {fileID: 0}
    - target: {fileID: 4076429681986070, guid: f42395eba2151d142adc8a8c693e7173, type: 2}
      propertyPath: m_LocalRotation.z
      value: 0
      objectReference: {fileID: 0}
    - target: {fileID: 4076429681986070, guid: f42395eba2151d142adc8a8c693e7173, type: 2}
      propertyPath: m_LocalRotation.w
      value: 1
      objectReference: {fileID: 0}
    - target: {fileID: 4076429681986070, guid: f42395eba2151d142adc8a8c693e7173, type: 2}
      propertyPath: m_RootOrder
      value: 4
      objectReference: {fileID: 0}
    - target: {fileID: 114432162186175434, guid: f42395eba2151d142adc8a8c693e7173,
        type: 2}
      propertyPath: boxGUI
      value: 
      objectReference: {fileID: 0}
    - target: {fileID: 114432162186175434, guid: f42395eba2151d142adc8a8c693e7173,
        type: 2}
      propertyPath: wallGUI
      value: 
      objectReference: {fileID: 0}
    - target: {fileID: 114432162186175434, guid: f42395eba2151d142adc8a8c693e7173,
        type: 2}
      propertyPath: goalGUI
      value: 
      objectReference: {fileID: 0}
    - target: {fileID: 114432162186175434, guid: f42395eba2151d142adc8a8c693e7173,
        type: 2}
      propertyPath: startGUI
      value: 
      objectReference: {fileID: 0}
    - target: {fileID: 114532148931483376, guid: f42395eba2151d142adc8a8c693e7173,
        type: 2}
      propertyPath: editorModeGUI
      value: 
      objectReference: {fileID: 0}
    - target: {fileID: 114532148931483376, guid: f42395eba2151d142adc8a8c693e7173,
        type: 2}
      propertyPath: testEditorModeGUI
      value: 
      objectReference: {fileID: 0}
    - target: {fileID: 114532148931483376, guid: f42395eba2151d142adc8a8c693e7173,
        type: 2}
      propertyPath: levelNameGUI
      value: 
      objectReference: {fileID: 0}
    m_RemovedComponents:
    - {fileID: 114438467929659812, guid: f42395eba2151d142adc8a8c693e7173, type: 2}
    - {fileID: 114243874522632296, guid: f42395eba2151d142adc8a8c693e7173, type: 2}
    - {fileID: 114432162186175434, guid: f42395eba2151d142adc8a8c693e7173, type: 2}
    - {fileID: 114532148931483376, guid: f42395eba2151d142adc8a8c693e7173, type: 2}
  m_ParentPrefab: {fileID: 100100000, guid: f42395eba2151d142adc8a8c693e7173, type: 2}
  m_IsPrefabParent: 0
--- !u!1 &1483081443
GameObject:
  m_ObjectHideFlags: 0
  m_PrefabParentObject: {fileID: 0}
  m_PrefabInternal: {fileID: 0}
  serializedVersion: 5
  m_Component:
  - component: {fileID: 1483081444}
  - component: {fileID: 1483081446}
  - component: {fileID: 1483081445}
  m_Layer: 5
  m_Name: LevelTitle
  m_TagString: Untagged
  m_Icon: {fileID: 0}
  m_NavMeshLayer: 0
  m_StaticEditorFlags: 0
  m_IsActive: 1
--- !u!224 &1483081444
RectTransform:
  m_ObjectHideFlags: 0
  m_PrefabParentObject: {fileID: 0}
  m_PrefabInternal: {fileID: 0}
  m_GameObject: {fileID: 1483081443}
  m_LocalRotation: {x: 0, y: 0, z: 0, w: 1}
  m_LocalPosition: {x: -91.60065, y: 231.01001, z: 0}
  m_LocalScale: {x: 1, y: 1, z: 1}
  m_Children: []
  m_Father: {fileID: 438325564}
  m_RootOrder: 0
  m_LocalEulerAnglesHint: {x: 0, y: 0, z: 0}
  m_AnchorMin: {x: 0, y: 0.93500006}
  m_AnchorMax: {x: 0.82571256, y: 1}
  m_AnchoredPosition: {x: 2.1660156, y: 1}
  m_SizeDelta: {x: 3.330017, y: -2}
  m_Pivot: {x: 0.5, y: 0.5}
--- !u!114 &1483081445
MonoBehaviour:
  m_ObjectHideFlags: 0
  m_PrefabParentObject: {fileID: 0}
  m_PrefabInternal: {fileID: 0}
  m_GameObject: {fileID: 1483081443}
  m_Enabled: 1
  m_EditorHideFlags: 0
  m_Script: {fileID: 708705254, guid: f70555f144d8491a825f0804e09c671c, type: 3}
  m_Name: 
  m_EditorClassIdentifier: 
  m_Material: {fileID: 0}
  m_Color: {r: 1, g: 1, b: 1, a: 1}
  m_RaycastTarget: 1
  m_OnCullStateChanged:
    m_PersistentCalls:
      m_Calls: []
    m_TypeName: UnityEngine.UI.MaskableGraphic+CullStateChangedEvent, UnityEngine.UI,
      Version=1.0.0.0, Culture=neutral, PublicKeyToken=null
  m_FontData:
    m_Font: {fileID: 10102, guid: 0000000000000000e000000000000000, type: 0}
    m_FontSize: 20
    m_FontStyle: 0
    m_BestFit: 0
    m_MinSize: 2
    m_MaxSize: 40
    m_Alignment: 4
    m_AlignByGeometry: 0
    m_RichText: 1
    m_HorizontalOverflow: 0
    m_VerticalOverflow: 0
    m_LineSpacing: 1
  m_Text: untitled
--- !u!222 &1483081446
CanvasRenderer:
  m_ObjectHideFlags: 0
  m_PrefabParentObject: {fileID: 0}
  m_PrefabInternal: {fileID: 0}
  m_GameObject: {fileID: 1483081443}
--- !u!4 &1571926323 stripped
Transform:
  m_PrefabParentObject: {fileID: 4999150806695204, guid: 6e8bdd5b72068c74eaf1ee12de155454,
    type: 2}
  m_PrefabInternal: {fileID: 731593023}
--- !u!114 &1571926324 stripped
MonoBehaviour:
  m_PrefabParentObject: {fileID: 114765143461433428, guid: 6e8bdd5b72068c74eaf1ee12de155454,
    type: 2}
  m_PrefabInternal: {fileID: 731593023}
  m_Script: {fileID: 11500000, guid: e1397963ef52c054a907f4a2630f8fa4, type: 3}
--- !u!4 &1717472606 stripped
Transform:
  m_PrefabParentObject: {fileID: 4805076059241604, guid: f42395eba2151d142adc8a8c693e7173,
    type: 2}
  m_PrefabInternal: {fileID: 1132721930}
--- !u!1001 &1809066851
Prefab:
  m_ObjectHideFlags: 0
  serializedVersion: 2
  m_Modification:
    m_TransformParent: {fileID: 0}
    m_Modifications:
    - target: {fileID: 4020105322141104, guid: 3bfa30d45bed9bf4ba6b123021f27117, type: 2}
      propertyPath: m_LocalPosition.x
      value: -9.185135
      objectReference: {fileID: 0}
    - target: {fileID: 4020105322141104, guid: 3bfa30d45bed9bf4ba6b123021f27117, type: 2}
      propertyPath: m_LocalPosition.y
      value: 2.2558706
      objectReference: {fileID: 0}
    - target: {fileID: 4020105322141104, guid: 3bfa30d45bed9bf4ba6b123021f27117, type: 2}
      propertyPath: m_LocalPosition.z
      value: -5.0001316
      objectReference: {fileID: 0}
    - target: {fileID: 4020105322141104, guid: 3bfa30d45bed9bf4ba6b123021f27117, type: 2}
      propertyPath: m_LocalRotation.x
      value: 0
      objectReference: {fileID: 0}
    - target: {fileID: 4020105322141104, guid: 3bfa30d45bed9bf4ba6b123021f27117, type: 2}
      propertyPath: m_LocalRotation.y
      value: 0
      objectReference: {fileID: 0}
    - target: {fileID: 4020105322141104, guid: 3bfa30d45bed9bf4ba6b123021f27117, type: 2}
      propertyPath: m_LocalRotation.z
      value: 0
      objectReference: {fileID: 0}
    - target: {fileID: 4020105322141104, guid: 3bfa30d45bed9bf4ba6b123021f27117, type: 2}
      propertyPath: m_LocalRotation.w
      value: 1
      objectReference: {fileID: 0}
    - target: {fileID: 4020105322141104, guid: 3bfa30d45bed9bf4ba6b123021f27117, type: 2}
      propertyPath: m_RootOrder
      value: 1
      objectReference: {fileID: 0}
    - target: {fileID: 114484416293428002, guid: 3bfa30d45bed9bf4ba6b123021f27117,
        type: 2}
      propertyPath: gameManagerMaster
      value: 
      objectReference: {fileID: 0}
    - target: {fileID: 114484416293428002, guid: 3bfa30d45bed9bf4ba6b123021f27117,
        type: 2}
      propertyPath: levelMaster
      value: 
      objectReference: {fileID: 2109506265}
    - target: {fileID: 114484416293428002, guid: 3bfa30d45bed9bf4ba6b123021f27117,
        type: 2}
      propertyPath: levelEditorMaster
      value: 
      objectReference: {fileID: 0}
    - target: {fileID: 114484416293428002, guid: 3bfa30d45bed9bf4ba6b123021f27117,
        type: 2}
      propertyPath: playerMaster
      value: 
      objectReference: {fileID: 1571926324}
    m_RemovedComponents: []
  m_ParentPrefab: {fileID: 100100000, guid: 3bfa30d45bed9bf4ba6b123021f27117, type: 2}
  m_IsPrefabParent: 0
--- !u!4 &2050027156 stripped
Transform:
  m_PrefabParentObject: {fileID: 4024709055802452, guid: f42395eba2151d142adc8a8c693e7173,
    type: 2}
  m_PrefabInternal: {fileID: 1132721930}
--- !u!4 &2079568295 stripped
Transform:
  m_PrefabParentObject: {fileID: 4381446852163594, guid: f42395eba2151d142adc8a8c693e7173,
    type: 2}
  m_PrefabInternal: {fileID: 1132721930}
--- !u!114 &2109506265 stripped
MonoBehaviour:
  m_PrefabParentObject: {fileID: 114872429100808916, guid: 5826efbdf5b34c14a92c0eb25c2ca1d7,
    type: 2}
  m_PrefabInternal: {fileID: 573364374}
  m_Script: {fileID: 11500000, guid: a599f48b1a21a60419d65ab1a4261812, type: 3}
--- !u!4 &2143044829 stripped
Transform:
  m_PrefabParentObject: {fileID: 4050485980490676, guid: f42395eba2151d142adc8a8c693e7173,
    type: 2}
  m_PrefabInternal: {fileID: 1132721930}
